Análise Exploratória dos Dados
…
Percebemos que as reclamações do INSS são em média menores do que as reclamações da ANAC.

3. Confiabilidade das avaliações humanas

3.1. Alguma avaliação foge dos valores de 1 a 5?

## # A tibble: 32 x 3
##    avaliador    id insatisfacao
##        <dbl> <dbl>        <dbl>
##  1 115211093     1            1
##  2 115111901     2            4
##  3 115110295     3            1
##  4 115110951     4            2
##  5 115210534     5            2
##  6 115111577     1            1
##  7 116110219     5            1
##  8 115111135     1            2
##  9 115110057     3            4
## 10 115211593     4            2
## # ... with 22 more rows
…
